…
``` sourceCode r
print(mtcars_stata)
```

    ## # A tibble: 32 x 12
    ##                  car   mpg   cyl  disp    hp  drat    wt  qsec    vs    am
    ##                <chr> <dbl> <dbl> <dbl> <dbl> <dbl> <dbl> <dbl> <dbl> <dbl>
    ##  1         Mazda RX4  21.0     6 160.0   110  3.90 2.620 16.46     0     1
    ##  2     Mazda RX4 Wag  21.0     6 160.0   110  3.90 2.875 17.02     0     1
    ##  3        Datsun 710  22.8     4 108.0    93  3.85 2.320 18.61     1     1
    ##  4    Hornet 4 Drive  21.4     6 258.0   110  3.08 3.215 19.44     1     0
    ##  5 Hornet Sportabout  18.7     8 360.0   175  3.15 3.440 17.02     0     0
    ##  6           Valiant  18.1     6 225.0   105  2.76 3.460 20.22     1     0
    ##  7        Duster 360  14.3     8 360.0   245  3.21 3.570 15.84     0     0
    ##  8         Merc 240D  24.4     4 146.7    62  3.69 3.190 20.00     1     0
    ##  9          Merc 230  22.8     4 140.8    95  3.92 3.150 22.90     1     0
    ## 10          Merc 280  19.2     6 167.6   123  3.92 3.440 18.30     1     0
    ## # ... with 22 more rows, and 2 more variables: gear <dbl>, carb <dbl>
…
So `gasoline`, which is a `tibble` object, is passed as the first
argument of the `filter()` function. Starting now, we're only going to
use these pipes. You will see why soon enough, so bear with me.

You can also filter more than just one year, by using the `%in%`
operator:

``` sourceCode r
gasoline %>% filter(year %in% seq(1969, 1973))
```

    ## # A tibble: 90 x 6
    ##    country  year lgaspcar  lincomep      lrpmg  lcarpcap
    ##     <fctr> <int>    <dbl>     <dbl>      <dbl>     <dbl>
    ##  1 AUSTRIA  1969 4.046355 -6.153140 -0.5591105 -8.788686
    ##  2 AUSTRIA  1970 4.080888 -6.081712 -0.5965612 -8.728200
    ##  3 AUSTRIA  1971 4.106720 -6.043626 -0.6544591 -8.635898
    ##  4 AUSTRIA  1972 4.128018 -5.981052 -0.5963318 -8.538338
    ##  5 AUSTRIA  1973 4.199381 -5.895153 -0.5944468 -8.487289
    ##  6 BELGIUM  1969 3.854601 -5.857532 -0.3548085 -8.521453
    ##  7 BELGIUM  1970 3.870392 -5.797201 -0.3779404 -8.453043
    ##  8 BELGIUM  1971 3.872245 -5.761050 -0.3992299 -8.409457
    ##  9 BELGIUM  1972 3.905402 -5.710230 -0.3106458 -8.362588
    ## 10 BELGIUM  1973 3.895996 -5.644145 -0.3730919 -8.314447
    ## # ... with 80 more rows

or even non-consecutive years:

``` sourceCode r
gasoline %>% filter(year %in% c(1969, 1973, 1977))
```

    ## # A tibble: 54 x 6
    ##    country  year lgaspcar  lincomep      lrpmg  lcarpcap
    ##     <fctr> <int>    <dbl>     <dbl>      <dbl>     <dbl>
    ##  1 AUSTRIA  1969 4.046355 -6.153140 -0.5591105 -8.788686
    ##  2 AUSTRIA  1973 4.199381 -5.895153 -0.5944468 -8.487289
    ##  3 AUSTRIA  1977 3.931676 -5.833288 -0.4219156 -8.249563
    ##  4 BELGIUM  1969 3.854601 -5.857532 -0.3548085 -8.521453
    ##  5 BELGIUM  1973 3.895996 -5.644145 -0.3730919 -8.314447
    ##  6 BELGIUM  1977 3.854311 -5.556697 -0.4316413 -8.138534
    ##  7  CANADA  1969 4.864433 -5.560853 -1.0368639 -8.095113
    ##  8  CANADA  1973 4.899694 -5.414753 -1.1331614 -7.942140
    ##  9  CANADA  1977 4.810992 -5.336967 -1.0708445 -7.768793
    ## 10 DENMARK  1969 4.173561 -5.722769 -0.4068792 -8.470459
    ## # ... with 44 more rows

`%in%` tests if an object is part of a set.

`filter()` is not the only *filtering* verb there is. Suppose that we
have a condition that we want to use to filter out a lot of columns at
once. For example, for every column that is of type `numeric`, keep only
the lines where the condition *value \> -8* is satisfied. The next line
does that:

``` sourceCode r
gasoline %>% filter_if( ~all(is.numeric(.)), all_vars(. > -8))
```

    ## # A tibble: 30 x 6
    ##    country  year lgaspcar  lincomep      lrpmg  lcarpcap
    ##     <fctr> <int>    <dbl>     <dbl>      <dbl>     <dbl>
    ##  1  CANADA  1972 4.889302 -5.436603 -1.0996670 -7.989531
    ##  2  CANADA  1973 4.899694 -5.414753 -1.1331614 -7.942140
    ##  3  CANADA  1974 4.891591 -5.418456 -1.1238000 -7.900758
    ##  4  CANADA  1975 4.888471 -5.379097 -1.1856843 -7.873313
    ##  5  CANADA  1976 4.837359 -5.361285 -1.0617966 -7.808425
    ##  6  CANADA  1977 4.810992 -5.336967 -1.0708445 -7.768793
    ##  7  CANADA  1978 4.855846 -5.311272 -1.0749507 -7.788061
    ##  8 GERMANY  1978 3.883879 -5.561733 -0.6281728 -7.950079
    ##  9  SWEDEN  1975 3.973840 -7.679557 -2.7673146 -7.994217
    ## 10  SWEDEN  1976 3.983997 -7.672043 -2.8229448 -7.956066
    ## # ... with 20 more rows
…
`filter_at()` works differently; it allows the user to filter columns by
position:

``` sourceCode r
gasoline %>% filter_at(vars(ends_with("p")), all_vars(. > -8))
```

    ## # A tibble: 30 x 6
    ##    country  year lgaspcar  lincomep      lrpmg  lcarpcap
    ##     <fctr> <int>    <dbl>     <dbl>      <dbl>     <dbl>
    ##  1  CANADA  1972 4.889302 -5.436603 -1.0996670 -7.989531
    ##  2  CANADA  1973 4.899694 -5.414753 -1.1331614 -7.942140
    ##  3  CANADA  1974 4.891591 -5.418456 -1.1238000 -7.900758
    ##  4  CANADA  1975 4.888471 -5.379097 -1.1856843 -7.873313
    ##  5  CANADA  1976 4.837359 -5.361285 -1.0617966 -7.808425
    ##  6  CANADA  1977 4.810992 -5.336967 -1.0708445 -7.768793
    ##  7  CANADA  1978 4.855846 -5.311272 -1.0749507 -7.788061
    ##  8 GERMANY  1978 3.883879 -5.561733 -0.6281728 -7.950079
    ##  9  SWEDEN  1975 3.973840 -7.679557 -2.7673146 -7.994217
    ## 10  SWEDEN  1976 3.983997 -7.672043 -2.8229448 -7.956066
    ## # ... with 20 more rows
…
### 4.3.2 `select()` and its helpers

While `filter()` and its scoped versions allow you to keep or discard
rows of data, `select()` (and its scoped versions) allow you to keep or
discard entire columns. To keep columns:

``` sourceCode r
gasoline %>% select(country, year, lrpmg)
```

    ## # A tibble: 342 x 3
    ##    country  year      lrpmg
    ##  *  <fctr> <int>      <dbl>
    ##  1 AUSTRIA  1960 -0.3345476
    ##  2 AUSTRIA  1961 -0.3513276
    ##  3 AUSTRIA  1962 -0.3795177
    ##  4 AUSTRIA  1963 -0.4142514
    ##  5 AUSTRIA  1964 -0.4453354
    ##  6 AUSTRIA  1965 -0.4970607
    ##  7 AUSTRIA  1966 -0.4668377
    ##  8 AUSTRIA  1967 -0.5058834
    ##  9 AUSTRIA  1968 -0.5224125
    ## 10 AUSTRIA  1969 -0.5591105
    ## # ... with 332 more rows

To discard them:

``` sourceCode r
gasoline %>% select(-country, -year, -lrpmg)
```

    ## # A tibble: 342 x 3
    ##    lgaspcar  lincomep  lcarpcap
    ##  *    <dbl>     <dbl>     <dbl>
    ##  1 4.173244 -6.474277 -9.766840
    ##  2 4.100989 -6.426006 -9.608622
    ##  3 4.073177 -6.407308 -9.457257
    ##  4 4.059509 -6.370679 -9.343155
    ##  5 4.037689 -6.322247 -9.237739
    ##  6 4.033983 -6.294668 -9.123903
    ##  7 4.047537 -6.252545 -9.019822
    ##  8 4.052911 -6.234581 -8.934403
    ##  9 4.045507 -6.206894 -8.847967
    ## 10 4.046355 -6.153140 -8.788686
    ## # ... with 332 more rows

To rename them:

``` sourceCode r
gasoline %>% select(country, date = year, lrpmg)
```

    ## # A tibble: 342 x 3
    ##    country  date      lrpmg
    ##  *  <fctr> <int>      <dbl>
    ##  1 AUSTRIA  1960 -0.3345476
    ##  2 AUSTRIA  1961 -0.3513276
    ##  3 AUSTRIA  1962 -0.3795177
    ##  4 AUSTRIA  1963 -0.4142514
    ##  5 AUSTRIA  1964 -0.4453354
    ##  6 AUSTRIA  1965 -0.4970607
    ##  7 AUSTRIA  1966 -0.4668377
    ##  8 AUSTRIA  1967 -0.5058834
    ##  9 AUSTRIA  1968 -0.5224125
    ## 10 AUSTRIA  1969 -0.5591105
    ## # ... with 332 more rows

There's also `rename()`, but it works a bit differently:

``` sourceCode r
gasoline %>% rename(date = year)
```

    ## # A tibble: 342 x 6
    ##    country  date lgaspcar  lincomep      lrpmg  lcarpcap
    ##  *  <fctr> <int>    <dbl>     <dbl>      <dbl>     <dbl>
    ##  1 AUSTRIA  1960 4.173244 -6.474277 -0.3345476 -9.766840
    ##  2 AUSTRIA  1961 4.100989 -6.426006 -0.3513276 -9.608622
    ##  3 AUSTRIA  1962 4.073177 -6.407308 -0.3795177 -9.457257
    ##  4 AUSTRIA  1963 4.059509 -6.370679 -0.4142514 -9.343155
    ##  5 AUSTRIA  1964 4.037689 -6.322247 -0.4453354 -9.237739
    ##  6 AUSTRIA  1965 4.033983 -6.294668 -0.4970607 -9.123903
    ##  7 AUSTRIA  1966 4.047537 -6.252545 -0.4668377 -9.019822
    ##  8 AUSTRIA  1967 4.052911 -6.234581 -0.5058834 -8.934403
    ##  9 AUSTRIA  1968 4.045507 -6.206894 -0.5224125 -8.847967
    ## 10 AUSTRIA  1969 4.046355 -6.153140 -0.5591105 -8.788686
    ## # ... with 332 more rows

`rename()` does not do any kind of selection, but just renames.

To re-order them:

``` sourceCode r
gasoline %>% select(year, country, lrpmg, everything())
```

    ## # A tibble: 342 x 6
    ##     year country      lrpmg lgaspcar  lincomep  lcarpcap
    ##  * <int>  <fctr>      <dbl>    <dbl>     <dbl>     <dbl>
    ##  1  1960 AUSTRIA -0.3345476 4.173244 -6.474277 -9.766840
    ##  2  1961 AUSTRIA -0.3513276 4.100989 -6.426006 -9.608622
    ##  3  1962 AUSTRIA -0.3795177 4.073177 -6.407308 -9.457257
    ##  4  1963 AUSTRIA -0.4142514 4.059509 -6.370679 -9.343155
    ##  5  1964 AUSTRIA -0.4453354 4.037689 -6.322247 -9.237739
    ##  6  1965 AUSTRIA -0.4970607 4.033983 -6.294668 -9.123903
    ##  7  1966 AUSTRIA -0.4668377 4.047537 -6.252545 -9.019822
    ##  8  1967 AUSTRIA -0.5058834 4.052911 -6.234581 -8.934403
    ##  9  1968 AUSTRIA -0.5224125 4.045507 -6.206894 -8.847967
    ## 10  1969 AUSTRIA -0.5591105 4.046355 -6.153140 -8.788686
    ## # ... with 332 more rows

`everything()` is another of those helper functions (like
`starts_with()`, and `ends_with()`). What if we are only interested in
columns whose name start with “l”?

``` sourceCode r
gasoline %>% select(starts_with("l"))
```

    ## # A tibble: 342 x 4
    ##    lgaspcar  lincomep      lrpmg  lcarpcap
    ##  *    <dbl>     <dbl>      <dbl>     <dbl>
    ##  1 4.173244 -6.474277 -0.3345476 -9.766840
    ##  2 4.100989 -6.426006 -0.3513276 -9.608622
    ##  3 4.073177 -6.407308 -0.3795177 -9.457257
    ##  4 4.059509 -6.370679 -0.4142514 -9.343155
    ##  5 4.037689 -6.322247 -0.4453354 -9.237739
    ##  6 4.033983 -6.294668 -0.4970607 -9.123903
    ##  7 4.047537 -6.252545 -0.4668377 -9.019822
    ##  8 4.052911 -6.234581 -0.5058834 -8.934403
    ##  9 4.045507 -6.206894 -0.5224125 -8.847967
    ## 10 4.046355 -6.153140 -0.5591105 -8.788686
    ## # ... with 332 more rows

The same can be achieved with `select_at()`:

``` sourceCode r
gasoline %>% select_at(vars(starts_with("l")))
```

    ## # A tibble: 342 x 4
    ##    lgaspcar  lincomep      lrpmg  lcarpcap
    ##  *    <dbl>     <dbl>      <dbl>     <dbl>
    ##  1 4.173244 -6.474277 -0.3345476 -9.766840
    ##  2 4.100989 -6.426006 -0.3513276 -9.608622
    ##  3 4.073177 -6.407308 -0.3795177 -9.457257
    ##  4 4.059509 -6.370679 -0.4142514 -9.343155
    ##  5 4.037689 -6.322247 -0.4453354 -9.237739
    ##  6 4.033983 -6.294668 -0.4970607 -9.123903
    ##  7 4.047537 -6.252545 -0.4668377 -9.019822
    ##  8 4.052911 -6.234581 -0.5058834 -8.934403
    ##  9 4.045507 -6.206894 -0.5224125 -8.847967
    ## 10 4.046355 -6.153140 -0.5591105 -8.788686
    ## # ... with 332 more rows

`select_at()` can be quite useful if you know the position of the
columns you're interested in:

``` sourceCode r
gasoline %>% select_at(vars(c(1,2,5)))
```

    ## # A tibble: 342 x 3
    ##    country  year      lrpmg
    ##  *  <fctr> <int>      <dbl>
    ##  1 AUSTRIA  1960 -0.3345476
    ##  2 AUSTRIA  1961 -0.3513276
    ##  3 AUSTRIA  1962 -0.3795177
    ##  4 AUSTRIA  1963 -0.4142514
    ##  5 AUSTRIA  1964 -0.4453354
    ##  6 AUSTRIA  1965 -0.4970607
    ##  7 AUSTRIA  1966 -0.4668377
    ##  8 AUSTRIA  1967 -0.5058834
    ##  9 AUSTRIA  1968 -0.5224125
    ## 10 AUSTRIA  1969 -0.5591105
    ## # ... with 332 more rows

This also works with `filter_at()` by the way.

`select_if()` makes it easy to select columns that satisfy a criterium:

``` sourceCode r
gasoline %>% select_if(is.numeric)
```

    ## # A tibble: 342 x 5
    ##     year lgaspcar  lincomep      lrpmg  lcarpcap
    ##  * <int>    <dbl>     <dbl>      <dbl>     <dbl>
    ##  1  1960 4.173244 -6.474277 -0.3345476 -9.766840
    ##  2  1961 4.100989 -6.426006 -0.3513276 -9.608622
    ##  3  1962 4.073177 -6.407308 -0.3795177 -9.457257
    ##  4  1963 4.059509 -6.370679 -0.4142514 -9.343155
    ##  5  1964 4.037689 -6.322247 -0.4453354 -9.237739
    ##  6  1965 4.033983 -6.294668 -0.4970607 -9.123903
    ##  7  1966 4.047537 -6.252545 -0.4668377 -9.019822
    ##  8  1967 4.052911 -6.234581 -0.5058834 -8.934403
    ##  9  1968 4.045507 -6.206894 -0.5224125 -8.847967
    ## 10  1969 4.046355 -6.153140 -0.5591105 -8.788686
    ## # ... with 332 more rows

You can even pass a further function to `select_if()` that will be
applied to the selected columns:

``` sourceCode r
gasoline %>% select_if(is.numeric, toupper)
```

    ## # A tibble: 342 x 5
    ##     YEAR LGASPCAR  LINCOMEP      LRPMG  LCARPCAP
    ##  * <int>    <dbl>     <dbl>      <dbl>     <dbl>
    ##  1  1960 4.173244 -6.474277 -0.3345476 -9.766840
    ##  2  1961 4.100989 -6.426006 -0.3513276 -9.608622
    ##  3  1962 4.073177 -6.407308 -0.3795177 -9.457257
    ##  4  1963 4.059509 -6.370679 -0.4142514 -9.343155
    ##  5  1964 4.037689 -6.322247 -0.4453354 -9.237739
    ##  6  1965 4.033983 -6.294668 -0.4970607 -9.123903
    ##  7  1966 4.047537 -6.252545 -0.4668377 -9.019822
    ##  8  1967 4.052911 -6.234581 -0.5058834 -8.934403
    ##  9  1968 4.045507 -6.206894 -0.5224125 -8.847967
    ## 10  1969 4.046355 -6.153140 -0.5591105 -8.788686
    ## # ... with 332 more rows

Another verb, similar to `select()`, is `pull()`. Let's compare the two:

``` sourceCode r
gasoline %>% select(lrpmg)
```

    ## # A tibble: 342 x 1
    ##         lrpmg
    ##  *      <dbl>
    ##  1 -0.3345476
    ##  2 -0.3513276
    ##  3 -0.3795177
    ##  4 -0.4142514
    ##  5 -0.4453354
    ##  6 -0.4970607
    ##  7 -0.4668377
    ##  8 -0.5058834
    ##  9 -0.5224125
    ## 10 -0.5591105
    ## # ... with 332 more rows
…
`pull()`, unlike `select()`, does not return a `tibble`, but only the
atomic vector.

### 4.3.3 `group_by()`

`group_by()` is a very useful verb; as the name implies, it allows you
to create groups and then, for example, compute descriptive statistics
by groups. For example, let's group our data by country:

``` sourceCode r
gasoline %>% group_by(country)
```

    ## # A tibble: 342 x 6
    ## # Groups:   country [18]
    ##    country  year lgaspcar  lincomep      lrpmg  lcarpcap
    ##  *  <fctr> <int>    <dbl>     <dbl>      <dbl>     <dbl>
    ##  1 AUSTRIA  1960 4.173244 -6.474277 -0.3345476 -9.766840
    ##  2 AUSTRIA  1961 4.100989 -6.426006 -0.3513276 -9.608622
    ##  3 AUSTRIA  1962 4.073177 -6.407308 -0.3795177 -9.457257
    ##  4 AUSTRIA  1963 4.059509 -6.370679 -0.4142514 -9.343155
    ##  5 AUSTRIA  1964 4.037689 -6.322247 -0.4453354 -9.237739
    ##  6 AUSTRIA  1965 4.033983 -6.294668 -0.4970607 -9.123903
    ##  7 AUSTRIA  1966 4.047537 -6.252545 -0.4668377 -9.019822
    ##  8 AUSTRIA  1967 4.052911 -6.234581 -0.5058834 -8.934403
    ##  9 AUSTRIA  1968 4.045507 -6.206894 -0.5224125 -8.847967
    ## 10 AUSTRIA  1969 4.046355 -6.153140 -0.5591105 -8.788686
    ## # ... with 332 more rows
…
``` sourceCode r
## # Groups:   country [18]
```

this means that the data is grouped, and every computation you will do
now will take these groups into account. This will be clearer in the
next subsection.

It is also possible to group according to various variables:

``` sourceCode r
gasoline %>% group_by(country, year)
```

    ## # A tibble: 342 x 6
    ## # Groups:   country, year [342]
    ##    country  year lgaspcar  lincomep      lrpmg  lcarpcap
    ##  *  <fctr> <int>    <dbl>     <dbl>      <dbl>     <dbl>
    ##  1 AUSTRIA  1960 4.173244 -6.474277 -0.3345476 -9.766840
    ##  2 AUSTRIA  1961 4.100989 -6.426006 -0.3513276 -9.608622
    ##  3 AUSTRIA  1962 4.073177 -6.407308 -0.3795177 -9.457257
    ##  4 AUSTRIA  1963 4.059509 -6.370679 -0.4142514 -9.343155
    ##  5 AUSTRIA  1964 4.037689 -6.322247 -0.4453354 -9.237739
    ##  6 AUSTRIA  1965 4.033983 -6.294668 -0.4970607 -9.123903
    ##  7 AUSTRIA  1966 4.047537 -6.252545 -0.4668377 -9.019822
    ##  8 AUSTRIA  1967 4.052911 -6.234581 -0.5058834 -8.934403
    ##  9 AUSTRIA  1968 4.045507 -6.206894 -0.5224125 -8.847967
    ## 10 AUSTRIA  1969 4.046355 -6.153140 -0.5591105 -8.788686
    ## # ... with 332 more rows

and so on. You can then also ungroup:

``` sourceCode r
gasoline %>% group_by(country, year) %>% ungroup()
```

    ## # A tibble: 342 x 6
    ##    country  year lgaspcar  lincomep      lrpmg  lcarpcap
    ##  *  <fctr> <int>    <dbl>     <dbl>      <dbl>     <dbl>
    ##  1 AUSTRIA  1960 4.173244 -6.474277 -0.3345476 -9.766840
    ##  2 AUSTRIA  1961 4.100989 -6.426006 -0.3513276 -9.608622
    ##  3 AUSTRIA  1962 4.073177 -6.407308 -0.3795177 -9.457257
    ##  4 AUSTRIA  1963 4.059509 -6.370679 -0.4142514 -9.343155
    ##  5 AUSTRIA  1964 4.037689 -6.322247 -0.4453354 -9.237739
    ##  6 AUSTRIA  1965 4.033983 -6.294668 -0.4970607 -9.123903
    ##  7 AUSTRIA  1966 4.047537 -6.252545 -0.4668377 -9.019822
    ##  8 AUSTRIA  1967 4.052911 -6.234581 -0.5058834 -8.934403
    ##  9 AUSTRIA  1968 4.045507 -6.206894 -0.5224125 -8.847967
    ## 10 AUSTRIA  1969 4.046355 -6.153140 -0.5591105 -8.788686
    ## # ... with 332 more rows
…
I removed the `year` variable because it's not a variable for which we
want to have descriptive statistics.

### 4.3.5 `mutate()` and `transmute()`

`mutate()` adds a column to the `tibble`, which can contain any
transformation of any other variable:

``` sourceCode r
gasoline %>%
  group_by(country) %>%
  mutate(n())
```

    ## # A tibble: 342 x 7
    ## # Groups:   country [18]
    ##    country  year lgaspcar  lincomep      lrpmg  lcarpcap `n()`
    ##     <fctr> <int>    <dbl>     <dbl>      <dbl>     <dbl> <int>
    ##  1 AUSTRIA  1960 4.173244 -6.474277 -0.3345476 -9.766840    19
    ##  2 AUSTRIA  1961 4.100989 -6.426006 -0.3513276 -9.608622    19
    ##  3 AUSTRIA  1962 4.073177 -6.407308 -0.3795177 -9.457257    19
    ##  4 AUSTRIA  1963 4.059509 -6.370679 -0.4142514 -9.343155    19
    ##  5 AUSTRIA  1964 4.037689 -6.322247 -0.4453354 -9.237739    19
    ##  6 AUSTRIA  1965 4.033983 -6.294668 -0.4970607 -9.123903    19
    ##  7 AUSTRIA  1966 4.047537 -6.252545 -0.4668377 -9.019822    19
    ##  8 AUSTRIA  1967 4.052911 -6.234581 -0.5058834 -8.934403    19
    ##  9 AUSTRIA  1968 4.045507 -6.206894 -0.5224125 -8.847967    19
    ## 10 AUSTRIA  1969 4.046355 -6.153140 -0.5591105 -8.788686    19
    ## # ... with 332 more rows

Using `mutate()` I've added a column that counts how many times the
country appears in the `tibble`, using `n()`, another `dplyr` function.
There's also `count()` and `tally()`, which we are going to see further
down. It is also possible to rename the column on the fly:

``` sourceCode r
gasoline %>%
  group_by(country) %>%
  mutate(freq = n())
```

    ## # A tibble: 342 x 7
    ## # Groups:   country [18]
    ##    country  year lgaspcar  lincomep      lrpmg  lcarpcap  freq
    ##     <fctr> <int>    <dbl>     <dbl>      <dbl>     <dbl> <int>
    ##  1 AUSTRIA  1960 4.173244 -6.474277 -0.3345476 -9.766840    19
    ##  2 AUSTRIA  1961 4.100989 -6.426006 -0.3513276 -9.608622    19
    ##  3 AUSTRIA  1962 4.073177 -6.407308 -0.3795177 -9.457257    19
    ##  4 AUSTRIA  1963 4.059509 -6.370679 -0.4142514 -9.343155    19
    ##  5 AUSTRIA  1964 4.037689 -6.322247 -0.4453354 -9.237739    19
    ##  6 AUSTRIA  1965 4.033983 -6.294668 -0.4970607 -9.123903    19
    ##  7 AUSTRIA  1966 4.047537 -6.252545 -0.4668377 -9.019822    19
    ##  8 AUSTRIA  1967 4.052911 -6.234581 -0.5058834 -8.934403    19
    ##  9 AUSTRIA  1968 4.045507 -6.206894 -0.5224125 -8.847967    19
    ## 10 AUSTRIA  1969 4.046355 -6.153140 -0.5591105 -8.788686    19
    ## # ... with 332 more rows
…
